{
    "appname": "assembly_elements",
    "version": "0.0.0",
    "api_version": "0.0.0",
    "log": {
        "path":"/var/log/{appname}/{appname}.log",
        "level":"debug"
    },
    "web": {
        "port":8092
    },
    "dsa": {
        "keys": {
            "base_directory": {
                "windows": "\\\\ds-san01\\dsa_keys",
                "linux": "/opt/pipeline/services/auth/dsa_keys"
            },
            "leaf_directory": "dsa"
        }
    }
}
